EARL 2021 - Workshop 3: Functional Programming with purrr
…
Until now we have only used lists as the input to map functions but we can also provide vectors as we have in this example.

One thing to note when we are applying functions to multiple lists is how we specify each of the lists when we define our own functions using the purrr shotcuts.

For the map2 function we can simply use .x and .y

map2_df(means, sds, ~rnorm(n = 100, mean = .x, sd = .y))

## # A tibble: 100 x 12
##         A       B       C       D      E       F     G       H     I     J     K
##     <dbl>   <dbl>   <dbl>   <dbl>  <dbl>   <dbl> <dbl>   <dbl> <dbl> <dbl> <dbl>
##  1 -0.122  7.13    0.0448 -1.47    3.38   4.23    2.90  1.61    5.83  3.59  5.98
##  2 -0.521 -1.28    2.35    4.21    3.39   0.462   2.18  2.81    3.21  3.83  5.69
##  3  1.28   0.0100  2.01   -0.0650  2.64   2.41    2.91  3.96    3.78  6.61  5.88
##  4  1.17   1.86    1.76    1.40    1.24   5.36    4.33  3.06    4.68  2.05  4.82
##  5  0.550 -2.99    1.65    1.45    3.06   1.69    2.62  1.34    5.51  5.79  5.93
##  6 -0.416  0.300   1.49   -0.163   2.88   1.76    3.09  0.194   4.16  6.17  4.97
##  7  0.926  2.64    1.94    1.91    3.01  -1.08    3.54 -0.0842  2.95  6.35  4.55
##  8 -1.08   3.49    2.89    5.22   -0.180  1.04    3.26  2.02    3.60  6.94  5.72
##  9 -0.954  1.94   -1.01   -1.83    2.66  -0.0411  2.07  4.45    3.25  6.43  6.19
## 10  0.924  1.30    3.72    0.0500  3.06   4.52    2.89  2.19    3.91  4.45  5.83
## #  with 90 more rows, and 1 more variable: L <dbl>
…
We can see that this returns an updated nested data frame, where the model column now contains the entire linear model fit for the given country. By continuing to make use of the map functions we can extract information about the model.

gap_model %>% 
  transmute(country, fit = map(model, glance)) %>%
  unnest(cols = c(fit))

## # A tibble: 142 x 12
##    country r.squared adj.r.squared sigma statistic  p.value    df logLik   AIC
##    <fct>       <dbl>         <dbl> <dbl>     <dbl>    <dbl> <int>  <dbl> <dbl>
##  1 Afghan     0.948         0.942 1.22      181.  9.84e- 8     2 -18.3  42.7 
##  2 Albania     0.911         0.902 1.98      102.  1.46e- 6     2 -24.1  54.3 
##  3 Algeria     0.985         0.984 1.32      662.  1.81e-10     2 -19.3  44.6 
##  4 Angola      0.888         0.877 1.41       79.1 4.59e- 6     2 -20.0  46.1 
##  5 Argent     0.996         0.995 0.292    2246.  4.22e-13     2  -1.17  8.35
##  6 Austra     0.980         0.978 0.621     481.  8.67e-10     2 -10.2  26.4 
##  7 Austria     0.992         0.991 0.407    1261.  7.44e-12     2  -5.16 16.3 
##  8 Bahrain     0.967         0.963 1.64      291.  1.02e- 8     2 -21.9  49.7 
##  9 Bangla     0.989         0.988 0.977     930.  3.37e-11     2 -15.7  37.3 
## 10 Belgium     0.995         0.994 0.293    1822.  1.20e-12     2  -1.20  8.40
## #  with 132 more rows, and 3 more variables: BIC <dbl>, deviance <dbl>,
## #   df.residual <int>
…
